…
2. The mean and median of the total number of steps taken per day

```r
step_mean <- data %>% group_by(date) %>% summarise(smean=mean(steps,na.rm = TRUE))
step_mean
```

```
## # A tibble: 61 x 2
##    date         smean
##    <fct>        <dbl>
##  1 2012-10-01 NaN    
##  2 2012-10-02   0.438
##  3 2012-10-03  39.4  
##  4 2012-10-04  42.1  
##  5 2012-10-05  46.2  
##  6 2012-10-06  53.5  
##  7 2012-10-07  38.2  
##  8 2012-10-08 NaN    
##  9 2012-10-09  44.5  
## 10 2012-10-10  34.4  
## # ... with 51 more rows
```

```r
step_median <- data %>% group_by(date) %>% summarise(smedian=median(steps,na.rm = TRUE))
step_median
```

```
## # A tibble: 61 x 2
##    date       smedian
##    <fct>        <dbl>
##  1 2012-10-01     NA 
##  2 2012-10-02      0.
##  3 2012-10-03      0.
##  4 2012-10-04      0.
##  5 2012-10-05      0.
##  6 2012-10-06      0.
##  7 2012-10-07      0.
##  8 2012-10-08     NA 
##  9 2012-10-09      0.
## 10 2012-10-10      0.
## # ... with 51 more rows
```
…
The mean and median of the total number of steps taken per day

```r
step_mean_new <- data_new %>% group_by(date) %>% summarise(smean=mean(steps,na.rm = TRUE))
step_mean_new
```

```
## # A tibble: 61 x 2
##    date        smean
##    <fct>       <dbl>
##  1 2012-10-01 37.4  
##  2 2012-10-02  0.438
##  3 2012-10-03 39.4  
##  4 2012-10-04 42.1  
##  5 2012-10-05 46.2  
##  6 2012-10-06 53.5  
##  7 2012-10-07 38.2  
##  8 2012-10-08 37.4  
##  9 2012-10-09 44.5  
## 10 2012-10-10 34.4  
## # ... with 51 more rows
```

```r
step_median_new <- data_new %>% group_by(date) %>% summarise(smedian=median(steps,na.rm = TRUE))
step_median_new
```

```
## # A tibble: 61 x 2
##    date       smedian
##    <fct>        <dbl>
##  1 2012-10-01    37.4
##  2 2012-10-02     0. 
##  3 2012-10-03     0. 
##  4 2012-10-04     0. 
##  5 2012-10-05     0. 
##  6 2012-10-06     0. 
##  7 2012-10-07     0. 
##  8 2012-10-08    37.4
##  9 2012-10-09     0. 
## 10 2012-10-10     0. 
## # ... with 51 more rows
```
…
